{
  "minecraft:adventure/adventuring_time": {
    "criteria": {
      "minecraft:cold_ocean": "2020-02-11 14:27:04 +0100",
      "minecraft:forest": "2020-02-11 14:25:49 +0100",
      "minecraft:mountains": "2020-02-11 14:26:59 +0100",
      "minecraft:beach": "2020-02-11 14:25:50 +0100",
      "minecraft:river": "2020-02-11 14:25:51 +0100",
      "minecraft:wooded_hills": "2020-02-11 14:25:21 +0100",
      "minecraft:plains": "2020-02-11 14:26:12 +0100"
    },
    "done": false
  },
  "DataVersion": 2230
}